{
  "wrapper": "div.collection-main--wrapper",
  "sections": {
    "collection_header": {
      "type": "template--collection-header",
      "blocks": {
        "aab67178-a96b-4467-82a9-346c1b2fb5ac": {
          "type": "collection-image",
          "settings": {
            "collection_image_size": "original"
          }
        },
        "db55d16f-709d-4e98-8c94-e29231072866": {
          "type": "collection-title",
          "disabled": true,
          "settings": {}
        }
      },
      "block_order": [
        "aab67178-a96b-4467-82a9-346c1b2fb5ac",
        "db55d16f-709d-4e98-8c94-e29231072866"
      ],
      "settings": {}
    },
    "collection_filtering": {
      "type": "template--collection-filter-sort",
      "blocks": {
        "b78e55dc-f970-4983-a4dc-69e519f3a117": {
          "type": "image",
          "settings": {
            "collection-sidebar-image": "shopify:\/\/shop_images\/test_logo_black.png",
            "collection-sidebar-link": ""
          }
        }
      },
      "block_order": [
        "b78e55dc-f970-4983-a4dc-69e519f3a117"
      ],
      "settings": {
        "desktop_position": "topbar",
        "enable_filtering": true,
        "enable_sorting": true
      }
    },
    "main": {
      "type": "template--collection",
      "blocks": {
        "grid-card-title": {
          "type": "grid-card-title",
          "settings": {}
        },
        "grid-card-price": {
          "type": "grid-card-price",
          "settings": {}
        }
      },
      "block_order": [
        "grid-card-title",
        "grid-card-price"
      ],
      "settings": {
        "grid": 6,
        "rows": 4,
        "pagination_type": "paged_navigation"
      }
    }
  },
  "order": [
    "collection_header",
    "collection_filtering",
    "main"
  ]
}